<svg width="160" height="95" viewBox="0 0 160 95" fill="none" xmlns="http://www.w3.org/2000/svg">
<g clip-path="url(#clip0_3_27)">
<path d="M47.7089 62.2662H2.12987V6.03785C25.8424 7.45778 49.5548 8.87769 73.2673 10.2976C64.7478 27.6205 56.2284 44.9433 47.7089 62.2662Z" fill="#B087CD"/>
<path d="M47.7089 64.3961H2.12986C1.85016 64.3961 1.57319 64.341 1.31478 64.234C1.05636 64.127 0.821555 63.9701 0.623775 63.7723C0.425994 63.5745 0.26911 63.3397 0.162082 63.0813C0.0550541 62.8229 -2.16548e-05 62.5459 1.63439e-08 62.2662V6.03785C-3.59633e-05 5.74742 0.059333 5.46005 0.174457 5.19341C0.289581 4.92677 0.458027 4.68649 0.669438 4.48735C0.880849 4.28822 1.13076 4.13442 1.4038 4.03543C1.67684 3.93644 1.96724 3.89435 2.25715 3.91173L73.3946 8.17146C73.745 8.19249 74.0849 8.29982 74.3838 8.4839C74.6828 8.66798 74.9316 8.92311 75.1081 9.22658C75.2847 9.53005 75.3835 9.87246 75.3957 10.2233C75.408 10.5742 75.3333 10.9227 75.1783 11.2377L49.62 63.2064C49.4444 63.5634 49.1723 63.8641 48.8345 64.0744C48.4967 64.2847 48.1068 64.3961 47.7089 64.3961V64.3961ZM4.25973 60.1364H46.3828L69.9423 12.2323L4.25973 8.29917V60.1364Z" fill="white"/>
<path d="M47.392 32.9998C47.8279 44.1474 40.4832 52.2455 29.6417 52.2717C19.0556 52.2971 11.8761 44.3367 11.8524 34.5177C11.8286 24.6987 18.8156 16.6015 29.6064 16.5757C38.1466 16.5549 44.6028 21.6528 46.6661 28.8078L39.8642 28.8245C38.3213 25.2482 34.5304 22.5468 29.5697 22.5589C22.4609 22.6271 18.0252 28.0591 18.0402 34.3493C18.056 40.8441 22.7226 46.2028 29.7802 46.2365C35.3037 46.2744 39.2852 43.2476 40.6038 38.7441L29.4553 38.7712L29.4416 33.0434L47.392 32.9998Z" fill="white"/>
<path d="M159.742 17.1282C159.445 16.5955 158.965 16.1885 158.391 15.9825C157.242 15.5915 155.14 16.7042 153.709 18.3353C151.265 21.1226 151.865 23.8794 150.431 29.1613L150.428 29.1625C149.452 29.4188 147.773 27 145.393 21.9062H145.393L140.608 2.20665C140.425 1.46333 139.956 0.822608 139.302 0.424405C138.648 0.0262009 137.863 -0.097131 137.119 0.0813419L136.459 0.241527C135.715 0.424007 135.074 0.893316 134.676 1.54689C134.278 2.20047 134.154 2.98517 134.333 3.7295L138.571 21.1816C138.025 21.2381 137.482 21.3258 136.946 21.4442L127.527 4.93442C127.145 4.27063 126.517 3.78469 125.778 3.58269C125.04 3.38069 124.252 3.47905 123.585 3.85629L122.995 4.1925C122.331 4.57341 121.845 5.20159 121.643 5.93978C121.441 6.67796 121.54 7.46611 121.917 8.132L131.155 24.3253C130.663 24.7481 130.201 25.2049 129.772 25.6924L117.96 13.5434C117.457 13.029 116.771 12.7344 116.052 12.7241C115.332 12.7139 114.638 12.9887 114.12 13.4886L113.384 14.2034C112.869 14.7062 112.575 15.3922 112.564 16.1115C112.554 16.8309 112.829 17.525 113.329 18.0423L126.549 31.6399C126.401 32.16 126.275 32.689 126.178 33.2284L115.168 26.7961C114.545 26.435 113.805 26.3347 113.109 26.5171C112.413 26.6996 111.818 27.1499 111.452 27.7699L110.935 28.6557C110.573 29.2778 110.473 30.0176 110.656 30.7135C110.838 31.4094 111.289 32.0047 111.909 32.3694L127.528 41.4948C128.315 42.5084 129.176 43.4622 130.103 44.3486C132.205 46.3518 134.21 48.2626 137.29 49.0659C141.865 50.2591 145.828 48.2318 147.048 47.6082C148.406 46.9135 152.171 44.9243 154.007 40.4871C154.304 39.7575 154.516 38.9957 154.637 38.2172C154.666 38.1397 154.701 38.0668 154.724 37.9856L159.911 19.0409C160.073 18.4027 160.013 17.7282 159.742 17.1282V17.1282ZM91.893 57.9265C89.5988 57.0582 87.0979 56.8925 84.7092 57.4508C82.3205 58.0091 80.1522 59.266 78.4805 61.0613C76.8089 62.8566 75.7096 65.109 75.3229 67.5314C74.9362 69.9538 75.2795 72.4365 76.3091 74.663C77.3387 76.8896 79.008 78.7591 81.1041 80.0334C83.2003 81.3076 85.6283 81.9289 88.0789 81.818C90.5295 81.7071 92.8915 80.869 94.864 79.4106C96.8364 77.9522 98.33 75.9395 99.1542 73.629C100.259 70.5831 100.116 67.2239 98.7563 64.2829C97.3963 61.342 94.9295 59.0573 91.893 57.9265V57.9265ZM120.311 58.6967L113.876 63.6003C112.492 61.0022 110.726 58.627 108.636 56.5544L114.973 49.5943C115.453 49.0717 115.708 48.3813 115.683 47.6722C115.658 46.9632 115.355 46.2923 114.84 45.8047C114.583 45.5685 114.281 45.3856 113.953 45.2668C113.625 45.148 113.276 45.0955 112.927 45.1124C112.579 45.1293 112.237 45.2153 111.922 45.3654C111.606 45.5154 111.324 45.7266 111.091 45.9866L104.601 53.1149C102.472 51.5767 100.182 50.2739 97.7713 49.2293L100.969 40.7663C101.096 40.4399 101.157 40.0918 101.149 39.7418C101.141 39.3918 101.064 39.0469 100.922 38.7267C100.781 38.4066 100.577 38.1175 100.324 37.8761C100.07 37.6348 99.7713 37.4458 99.4446 37.32C99.4305 37.3144 99.4168 37.3095 99.4027 37.3044C98.7411 37.0752 98.0161 37.1145 97.3832 37.4139C96.7503 37.7133 96.26 38.2489 96.0176 38.9058L92.7858 47.458C90.1418 46.7186 87.4226 46.2813 84.6801 46.1545L83.8838 37.3627C83.8549 37.0151 83.7569 36.6768 83.5956 36.3676C83.4343 36.0584 83.213 35.7845 82.9445 35.5619C82.6761 35.3392 82.3659 35.1725 82.0321 35.0712C81.6984 34.97 81.3478 34.9364 81.0009 34.9723C80.295 35.0518 79.6484 35.4047 79.1998 35.9555C78.7512 36.5063 78.5363 37.211 78.6013 37.9183L79.3632 46.3306C77.0086 46.5938 74.6936 47.1363 72.4672 47.9468L70.1001 39.8771C70.0036 39.5422 69.8411 39.23 69.6222 38.9587C69.4033 38.6875 69.1324 38.4628 68.8254 38.2978C68.5184 38.1328 68.1815 38.0309 67.8345 37.998C67.4875 37.9651 67.1375 38.002 66.8049 38.1063C66.1272 38.3208 65.5603 38.7919 65.2254 39.4189C64.8905 40.046 64.8141 40.7791 65.0127 41.4617L67.6115 50.3206C63.7651 52.668 60.8216 56.2426 59.2555 60.4678C54.8496 72.7242 63.879 87.1948 79.383 92.7252C94.8877 98.2558 111.086 92.7841 115.492 80.5277C116.83 76.7308 116.972 72.6153 115.9 68.735L123.469 62.9671C124.035 62.5373 124.41 61.903 124.513 61.2001C124.616 60.4973 124.44 59.782 124.021 59.2078C123.814 58.9275 123.552 58.6916 123.252 58.5138C122.952 58.3359 122.619 58.2198 122.274 58.1722C121.928 58.1246 121.577 58.1465 121.24 58.2366C120.903 58.3266 120.587 58.4831 120.311 58.6967H120.311ZM110.509 78.7503C107.107 88.2153 93.96 92.2134 81.2028 87.6629C68.4463 83.1124 60.8357 71.7102 64.2383 62.2452C66.5813 55.7276 73.5454 51.8029 81.8203 51.4762C82.0442 51.5139 82.272 51.5221 82.4979 51.5006C82.5689 51.4931 82.6342 51.4704 82.7034 51.4577C86.3989 51.4436 90.0682 52.0782 93.5443 53.3326C106.301 57.8831 113.912 69.2853 110.509 78.7503H110.509Z" fill="#B087CD"/>
</g>
<defs>
<clipPath id="clip0_3_27">
<rect width="160" height="94.8826" fill="white"/>
</clipPath>
</defs>
</svg>
